Receipt number,Order date,SKU,Product name,Name,Unit price,Today's price,ICANN fee,Qty,Length,Extra disc.,Subtotal amount,Shipping and handling amount,Tax amount,Order total,Currency,First name,Last name,Address 1,Address 2,City,State/Province,ZIP/Postal code,Country,Work phone,Email,Name on card,Payment method,Card number,Customer number
944569160,2016-03-01T13:58:23Z,101-1,.COM Domain Name Registration - 1 Year (recurring),i2ips.com,611,599,12,1,1 year(s),0,611,0,0,611,INR,Alok,Agrawal,"403, Sukhdham Apts",165 Vidhya Nagar,Indore,MP,452001,in,+91.9826922447,alok.agrawal@rediffmail.com,Alok Agrawal,Visa,############7842,59858413
941126892,2016-02-23T08:19:24Z,101-1,.COM Domain Name Registration - 1 Year (recurring),sapnasandwitch.com,611,599,12,1,1 year(s),0,611,0,0,611,INR,Alok,Agrawal,"403, Sukhdham Apts",165 Vidhya Nagar,Indore,MP,452001,in,+91.9826922447,alok.agrawal@rediffmail.com,Alok Agrawal,Visa,############4538,59858413
939133797,2016-02-18T12:18:11Z,51500-1,.IN (.ORG.IN) Domain Name Renewal - 1 Year (recurring),EXTREME.ORG.IN,549,549,0,1,1 year(s),0,549,0,0,1060,INR,Alok,Agrawal,"403, Sukhdham Apts",165 Vidhya Nagar,Indore,MP,452001,in,+91.9826922447,alok.agrawal@rediffmail.com, ,debit_card,,59858413
939133797,2016-02-18T12:18:11Z,12101-1,.ORG Domain Name Registration - 1 Year (recurring),panchayatsamitisudhagadpali.org,511,499,12,1,1 year(s),0,511,0,0,1060,INR,Alok,Agrawal,"403, Sukhdham Apts",165 Vidhya Nagar,Indore,MP,452001,in,+91.9826922447,alok.agrawal@rediffmail.com, ,debit_card,,59858413
933254803,2016-02-04T14:32:29Z,101-1,.COM Domain Name Registration - 1 Year (recurring),smartcomputersabg.com,611,599,12,1,1 year(s),0,611,0,0,611,INR,Alok,Agrawal,"403, Sukhdham Apts",165 Vidhya Nagar,Indore,MP,452001,in,+91.9826922447,alok.agrawal@rediffmail.com, ,debit_card,,59858413
930153091,2016-01-28T09:16:21Z,101-1,.COM Domain Name Registration - 1 Year (recurring),discountanddeals.com,611,599,12,1,1 year(s),0,611,0,0,611,INR,Alok,Agrawal,"403, Sukhdham Apts",165 Vidhya Nagar,Indore,MP,452001,in,+91.9826922447,alok.agrawal@rediffmail.com, ,debit_card,,59858413
927219111,2016-01-21T05:53:45Z,101-1,.COM Domain Name Registration - 1 Year (recurring),tejasweecottage.com,611,599,12,1,1 year(s),0,611,0,0,1933,INR,Alok,Agrawal,"403, Sukhdham Apts",165 Vidhya Nagar,Indore,MP,452001,in,+91.9826922447,alok.agrawal@rediffmail.com, ,debit_card,,59858413
927219111,2016-01-21T05:53:45Z,101-1,.COM Domain Name Registration - 1 Year (recurring),bargainsworldind.com,611,599,12,1,1 year(s),0,611,0,0,1933,INR,Alok,Agrawal,"403, Sukhdham Apts",165 Vidhya Nagar,Indore,MP,452001,in,+91.9826922447,alok.agrawal@rediffmail.com, ,debit_card,,59858413
927219111,2016-01-21T05:53:45Z,10101-1,.COM Domain Name Renewal - 1 Year (recurring),QUESTEDUVENTURES.COM,711,699,12,1,1 year(s),0,711,0,0,1933,INR,Alok,Agrawal,"403, Sukhdham Apts",165 Vidhya Nagar,Indore,MP,452001,in,+91.9826922447,alok.agrawal@rediffmail.com, ,debit_card,,59858413
926882308,2016-01-21T05:35:04Z,9850-1,.IN Domain Name Registration - 1 Year (recurring),barato.in,199,199,0,1,1 year(s),0,199,0,0,199,INR,Alok,Agrawal,"403, Sukhdham Apts",165 Vidhya Nagar,Indore,MP,452001,in,+91.9826922447,alok.agrawal@rediffmail.com, ,debit_card,,59858413
913804647,2016-01-07T13:08:22Z,101-1,.COM Domain Name Registration - 1 Year (recurring),aspicompany.com,611,599,12,1,1 year(s),0,611,0,0,611,INR,Alok,Agrawal,"403, Sukhdham Apts",165 Vidhya Nagar,Indore,MP,452001,in,+91.9826922447,alok.agrawal@rediffmail.com, ,debit_card,,59858413
911442853,2015-12-11T13:18:13Z,101-1,.COM Domain Name Registration - 1 Year (recurring),highonevents.com,611,599,12,1,1 year(s),0,611,0,0,611,INR,Alok,Agrawal,"403, Sukhdham Apts",165 Vidhya Nagar,Indore,MP,452001,in,+91.9826922447,alok.agrawal@rediffmail.com, ,debit_card,,59858413
910469377,2015-12-11T12:52:41Z,101-1,.COM Domain Name Registration - 1 Year (recurring),indorefoods.com,611,599,12,1,1 year(s),0,611,0,0,611,INR,Alok,Agrawal,"403, Sukhdham Apts",165 Vidhya Nagar,Indore,MP,452001,in,+91.9826922447,alok.agrawal@rediffmail.com, ,debit_card,,59858413
898167956,2015-11-07T13:48:01Z,32077-1,Hosting - Web - Deluxe - Linux cPanel - US Region - Renewal - 1 years (recurring),,5519.89,7188,0,1,1 year(s),1668.11,5519.89,0,0,8363.25,INR,Alok,Agrawal,"403, Sukhdham Apts",165 Vidhya Nagar,Indore,MP,452001,in,+91.9826922447,alok.agrawal@rediffmail.com, ,debit_card,,59858413
898167956,2015-11-07T13:48:01Z,190058-1,Web Hosting Add-On Resources - Renewal - Level 3,,2294.58,249,0,1,12 month(s),693.42,2294.58,0,0,8363.25,INR,Alok,Agrawal,"403, Sukhdham Apts",165 Vidhya Nagar,Indore,MP,452001,in,+91.9826922447,alok.agrawal@rediffmail.com, ,debit_card,,59858413
898167956,2015-11-07T13:48:01Z,562250-1,Renewal Usage,,0,0,0,1,1 month(s),0,0,0,0,8363.25,INR,Alok,Agrawal,"403, Sukhdham Apts",165 Vidhya Nagar,Indore,MP,452001,in,+91.9826922447,alok.agrawal@rediffmail.com, ,debit_card,,59858413
898167956,2015-11-07T13:48:01Z,10101-1,.COM Domain Name Renewal - 1 Year (recurring),FOSSLED.COM,548.78,699,12,1,1 year(s),162.22,548.78,0,0,8363.25,INR,Alok,Agrawal,"403, Sukhdham Apts",165 Vidhya Nagar,Indore,MP,452001,in,+91.9826922447,alok.agrawal@rediffmail.com, ,debit_card,,59858413
894814857,2015-10-29T10:54:08Z,9850-1,.IN Domain Name Registration - 1 Year (recurring),pwave.in,199,199,0,1,1 year(s),0,199,0,0,199,INR,Alok,Agrawal,"403, Sukhdham Apts",165 Vidhya Nagar,Indore,MP,452001,in,+91.9826922447,alok.agrawal@rediffmail.com,Alok Agrawal,Visa,############0694,59858413
891759985,2015-10-21T18:26:18Z,101-1,.COM Domain Name Registration - 1 Year (recurring),pwavehealth.com,611,599,12,1,1 year(s),0,611,0,0,1222,INR,Alok,Agrawal,"403, Sukhdham Apts",165 Vidhya Nagar,Indore,MP,452001,in,+91.9826922447,alok.agrawal@rediffmail.com, ,,,59858413
891759985,2015-10-21T18:26:18Z,101-1,.COM Domain Name Registration - 1 Year (recurring),pwavedoc.com,611,599,12,1,1 year(s),0,611,0,0,1222,INR,Alok,Agrawal,"403, Sukhdham Apts",165 Vidhya Nagar,Indore,MP,452001,in,+91.9826922447,alok.agrawal@rediffmail.com, ,,,59858413
882377938,2015-09-28T09:00:59Z,9850-1,.IN Domain Name Registration - 1 Year (recurring),atlantistower.in,199,199,0,1,1 year(s),0,199,0,0,199,INR,Alok,Agrawal,"403, Sukhdham Apts",165 Vidhya Nagar,Indore,MP,452001,in,+91.9826922447,alok.agrawal@rediffmail.com,Alok Agrawal,Visa,############0694,59858413
879699359,2015-09-21T07:53:49Z,101-1,.COM Domain Name Registration - 1 Year (recurring),green-basket.com,611,599,12,1,1 year(s),0,611,0,0,611,INR,Alok,Agrawal,"403, Sukhdham Apts",165 Vidhya Nagar,Indore,MP,452001,in,+91.9826922447,alok.agrawal@rediffmail.com,Alok Agrawal,Visa,############0694,59858413
876539765,2015-09-13T04:08:09Z,101-1,.COM Domain Name Registration - 1 Year (recurring),arihantlifespace.com,611,599,12,1,1 year(s),0,611,0,0,1322,INR,Alok,Agrawal,"403, Sukhdham Apts",165 Vidhya Nagar,Indore,MP,452001,in,+91.9826922447,alok.agrawal@rediffmail.com,Alok Agrawal,Visa,############0694,59858413
876539765,2015-09-13T04:08:09Z,10101-1,.COM Domain Name Renewal - 1 Year (recurring),HIREANALYST.COM,711,699,12,1,1 year(s),0,711,0,0,1322,INR,Alok,Agrawal,"403, Sukhdham Apts",165 Vidhya Nagar,Indore,MP,452001,in,+91.9826922447,alok.agrawal@rediffmail.com,Alok Agrawal,Visa,############0694,59858413
874981589,2015-09-09T08:17:48Z,101-1,.COM Domain Name Registration - 1 Year (recurring),appdevelopmentdemo.com,611,599,12,1,1 year(s),0,611,0,0,611,INR,Alok,Agrawal,"403, Sukhdham Apts",165 Vidhya Nagar,Indore,MP,452001,in,+91.9826922447,alok.agrawal@rediffmail.com,Alok Agrawal,Visa,############0694,59858413
861939531,2015-08-06T08:24:27Z,738-1,GoDaddy Auctions Expired Domain Purchase,,789.47,789.47,0,1,1 ,0,789.47,0,0,1500.47,INR,Alok,Agrawal,"403, Sukhdham Apts",165 Vidhya Nagar,Indore,MP,452001,in,+91.9826922447,alok.agrawal@rediffmail.com, ,,,59858413
861939531,2015-08-06T08:24:27Z,19010-1,.COM Domain Name Renewal - 1 Year (recurring),,711,699,12,1,1 year(s),0,711,0,0,1500.47,INR,Alok,Agrawal,"403, Sukhdham Apts",165 Vidhya Nagar,Indore,MP,452001,in,+91.9826922447,alok.agrawal@rediffmail.com, ,,,59858413
853809282,2015-08-05T15:14:33Z,761009-1,GoDaddy Auctions -  Membership w/ DomainAlert. Pro Monitoring,,319,319,0,1,1 year(s),0,319,0,0,319,INR,Alok,Agrawal,"403, Sukhdham Apts",165 Vidhya Nagar,Indore,MP,452001,in,+91.9826922447,alok.agrawal@rediffmail.com, ,,,59858413
853809282,2015-08-05T15:14:33Z,743-1,GoDaddy Auctions -  Membership,,0,319,0,1,,0,0,0,0,319,INR,Alok,Agrawal,"403, Sukhdham Apts",165 Vidhya Nagar,Indore,MP,452001,in,+91.9826922447,alok.agrawal@rediffmail.com, ,,,59858413
853809282,2015-08-05T15:14:33Z,9001-1,DomainAlert(R) Pro Monitoring - 100 Pack,,0,347.49,0,1,,0,0,0,0,319,INR,Alok,Agrawal,"403, Sukhdham Apts",165 Vidhya Nagar,Indore,MP,452001,in,+91.9826922447,alok.agrawal@rediffmail.com, ,,,59858413
848878102,2015-07-09T08:15:38Z,101-1,.COM Domain Name Registration - 1 Year (recurring),questfincorp.com,611,599,12,1,1 year(s),0,611,0,0,611,INR,Alok,Agrawal,"403, Sukhdham Apts",165 Vidhya Nagar,Indore,MP,452001,in,+91.9826922447,alok.agrawal@rediffmail.com, ,,,59858413
844530724,2015-06-22T14:24:09Z,101-1,.COM Domain Name Registration - 1 Year (recurring),dailykiranaa.com,611,599,12,1,1 year(s),0,611,0,0,611,INR,Alok,Agrawal,"403, Sukhdham Apts",165 Vidhya Nagar,Indore,MP,452001,in,+91.9826922447,alok.agrawal@rediffmail.com, ,,,59858413
842231001,2015-06-16T14:47:11Z,101-1,.COM Domain Name Registration - 1 Year (recurring),motorgadiwale.com,611,599,12,1,1 year(s),0,611,0,0,611,INR,Alok,Agrawal,"403, Sukhdham Apts",165 Vidhya Nagar,Indore,MP,452001,in,+91.9826922447,alok.agrawal@rediffmail.com, ,debit_card,,59858413
833891162,2015-05-26T08:39:29Z,9850-1,.IN Domain Name Registration - 1 Year (recurring),lawkhan.in,199,199,0,1,1 year(s),0,199,0,0,199,INR,Alok,Agrawal,"403, Sukhdham Apts",165 Vidhya Nagar,Indore,MP,452001,in,+91.9826922447,alok.agrawal@rediffmail.com, ,,,59858413
823591064,2015-04-29T07:04:08Z,102-1,.COM Domain Name Registration - 2 Years (recurring),qhunger.com,1182,1198,24,1,2 year(s),40,1182,0,0,1182,INR,Alok,Agrawal,"403, Sukhdham Apts",165 Vidhya Nagar,Indore,MP,452001,in,+91.9826922447,alok.agrawal@rediffmail.com, ,InStoreCredit,,59858413
805386980,2015-04-23T11:04:04Z,51001-1,.IN (.CO.IN) Domain Name Renewal - 2 Years (recurring),QUESTINDIA.CO.IN,978,978,0,1,2 year(s),0,978,0,0,978,INR,Alok,Agrawal,"403, Sukhdham Apts",165 Vidhya Nagar,Indore,MP,452001,in,+91.9826922447,alok.agrawal@rediffmail.com, ,debit_card,,59858413
801637664,2015-03-05T10:22:24Z,101-1,.COM Domain Name Registration - 1 Year (recurring),skgovil.com,611,599,12,1,1 year(s),0,611,0,0,611,INR,Alok,Agrawal,"403, Sukhdham Apts",165 Vidhya Nagar,Indore,MP,452001,in,+91.9826922447,alok.agrawal@rediffmail.com, ,InStoreCredit,,59858413
798677142,2015-02-27T08:37:28Z,2702-1,Online Bookkeeping Renewal Free,,0,0,0,1,1 month(s),0,0,0,0,0,INR,Alok,Agrawal,"403, Sukhdham Apts",165 Vidhya Nagar,Indore,MP,452001,in,+91.9826922447,alok.agrawal@rediffmail.com, ,zero,,59858413
798672767,2015-02-27T07:15:56Z,41500-1,.IN (.ORG.IN) Domain Name Registration - 1 Year (recurring),xtreme.org.in,230,230,0,1,1 year(s),0,230,0,0,230,INR,Alok,Agrawal,"403, Sukhdham Apts",165 Vidhya Nagar,Indore,MP,452001,in,+91.9826922447,alok.agrawal@rediffmail.com, ,InStoreCredit,,59858413
798670598,2015-02-27T06:41:29Z,41500-1,.IN (.ORG.IN) Domain Name Registration - 1 Year (recurring),extreme.org.in,230,230,0,1,1 year(s),0,230,0,0,230,INR,Alok,Agrawal,"403, Sukhdham Apts",165 Vidhya Nagar,Indore,MP,452001,in,+91.9826922447,alok.agrawal@rediffmail.com, ,,,59858413
789989037R,2015-02-18T09:45:04Z,190057-1,Web Hosting Add-On Resources - Level 3,,-1132.88,127.39,0,-1,8.893 month(s),0,-1132.88,0,0,-1132.88,INR,Alok,Agrawal,"403, Sukhdham Apts",165 Vidhya Nagar,Indore,MP,452001,in,+91.9826922447,alok.agrawal@rediffmail.com, ,InStoreCredit,,59858413
795026831,2015-02-18T08:21:01Z,32059-1,Hosting - Web - Deluxe - Linux cPanel - US Region - 1 years (recurring),,3413.92,4788,0,1,1 year(s),1374.08,3413.92,0,0,3425.92,INR,Alok,Agrawal,"403, Sukhdham Apts",165 Vidhya Nagar,Indore,MP,452001,in,+91.9826922447,alok.agrawal@rediffmail.com, ,InStoreCredit,,59858413
795026831,2015-02-18T08:21:01Z,101-1,.COM Domain Name Registration - 1 Year (recurring),questeduventures.com,12,599,12,1,1 year(s),599,12,0,0,3425.92,INR,Alok,Agrawal,"403, Sukhdham Apts",165 Vidhya Nagar,Indore,MP,452001,in,+91.9826922447,alok.agrawal@rediffmail.com, ,InStoreCredit,,59858413
795024011R,2015-02-18T08:18:34Z,32059-1,Hosting - Web - Deluxe - Linux cPanel - US Region - 1 years (recurring),,-3413.92,4788,0,-1,1 year(s),1374.08,-3413.92,0,0,-3413.92,INR,Alok,Agrawal,"403, Sukhdham Apts",165 Vidhya Nagar,Indore,MP,452001,in,+91.9826922447,alok.agrawal@rediffmail.com, ,InStoreCredit,,59858413
795024011,2015-02-18T07:49:50Z,32059-1,Hosting - Web - Deluxe - Linux cPanel - US Region - 1 years (recurring),,3413.92,4788,0,1,1 year(s),1374.08,3413.92,0,0,3413.92,INR,Alok,Agrawal,"403, Sukhdham Apts",165 Vidhya Nagar,Indore,MP,452001,in,+91.9826922447,alok.agrawal@rediffmail.com, ,InStoreCredit,,59858413
792219903R,2015-02-18T07:48:40Z,32059-1,Hosting - Web - Deluxe - Linux cPanel - US Region - 1 years (recurring),,-4788,4788,0,-1,1 year(s),0,-4788,0,0,-4788,INR,Alok,Agrawal,"403, Sukhdham Apts",165 Vidhya Nagar,Indore,MP,452001,in,+91.9826922447,alok.agrawal@rediffmail.com, ,InStoreCredit,,59858413
792219903,2015-02-11T09:43:11Z,32059-1,Hosting - Web - Deluxe - Linux cPanel - US Region - 1 years (recurring),,4788,4788,0,1,1 year(s),0,4788,0,0,4788,INR,Alok,Agrawal,"403, Sukhdham Apts",165 Vidhya Nagar,Indore,MP,452001,in,+91.9826922447,alok.agrawal@rediffmail.com, ,,,59858413
789989037,2015-02-05T14:33:59Z,190057-1,Web Hosting Add-On Resources - Level 3,,1132.88,127.39,0,1,8.893 month(s),0,1132.88,0,0,1132.88,INR,Alok,Agrawal,"403, Sukhdham Apts",165 Vidhya Nagar,Indore,MP,452001,in,+91.9826922447,alok.agrawal@rediffmail.com, ,InStoreCredit,,59858413
778098734,2015-01-07T09:13:12Z,190055-1,Web Hosting Add-On Resources - Level 2,,879.7,129,0,1,9.742 month(s),377.02,879.7,0,0,879.7,INR,Alok,Agrawal,"403, Sukhdham Apts",165 Vidhya Nagar,Indore,MP,452001,in,+91.9826922447,alok.agrawal@rediffmail.com, ,,,59858413
773538183,2014-12-26T08:43:01Z,101-1,.COM Domain Name Registration - 1 Year (recurring),fossled.com,205.55,589,12,1,1 year(s),395.45,205.55,0,0,205.55,INR,Alok,Agrawal,"403, Sukhdham Apts",165 Vidhya Nagar,Indore,MP,452001,in,+91.9826922447,alok.agrawal@rediffmail.com, ,debit_card,,59858413
772861118,2014-12-23T07:19:37Z,2702-1,Online Bookkeeping Renewal Free,,0,0,0,1,1 month(s),0,0,0,0,0,INR,Alok,Agrawal,"403, Sukhdham Apts",165 Vidhya Nagar,Indore,MP,452001,in,+91.9826922447,alok.agrawal@rediffmail.com, ,zero,,59858413
754832154,2014-11-04T14:51:22Z,6635-1,Email Storage Upgrade (1000 MB Total),,1214.73,539.88,0,3,1 year(s),404.91,1214.73,0,0,1214.73,INR,Alok,Agrawal,"403, Sukhdham Apts",165 Vidhya Nagar,Indore,MP,452001,in,+91.9826922447,alok.agrawal@rediffmail.com, ,InStoreCredit,,59858413
747700912R,2014-11-04T14:49:14Z,16635-1,Email Storage Upgrade (1000 MB Total) - Renewal,,-1738.47,579.49,0,-3,1 year(s),0,-1738.47,0,0,-1738.47,INR,Alok,Agrawal,Sector 30,,Gurgaon,HR,122001,IN,9953258671,alok.agrawal@rediffmail.com, ,InStoreCredit,,59858413
753075681,2014-10-30T12:33:32Z,101-1,.COM Domain Name Registration - 1 Year (recurring),HIREANALYST.COM,12,589,12,1,1 year(s),589,12,0,0,3425.92,INR,Alok,Agrawal,401 Gravity Tower,Zanzeerwala Square,Indore,MP,452001,in,+91.9826922447,alok.agrawal@rediffmail.com, ,,,59858413
753075681,2014-10-30T12:33:32Z,32059-1,Hosting - Web - Deluxe - Linux cPanel - US Region - 1 years (recurring),,3413.92,4788,0,1,1 year(s),1374.08,3413.92,0,0,3425.92,INR,Alok,Agrawal,401 Gravity Tower,Zanzeerwala Square,Indore,MP,452001,in,+91.9826922447,alok.agrawal@rediffmail.com, ,,,59858413
747700912,2014-10-16T13:20:16Z,17411-1,Email - Free Hosting (100 - 10MB Boxes) - AP Region - Renewal (recurring),,0,0,0,1,1 year(s),0,0,0,0,1738.47,INR,Alok,Agrawal,Sector 30,,Gurgaon,HR,122001,IN,9953258671,alok.agrawal@rediffmail.com,Alok Agrawal,Visa,############0694,59858413
747700912,2014-10-16T13:20:16Z,16635-1,Email Storage Upgrade (1000 MB Total) - Renewal,,1738.47,579.49,0,3,1 year(s),0,1738.47,0,0,1738.47,INR,Alok,Agrawal,Sector 30,,Gurgaon,HR,122001,IN,9953258671,alok.agrawal@rediffmail.com,Alok Agrawal,Visa,############0694,59858413
676618427,2014-04-06T13:44:41Z,51000-1,.IN (.CO.IN) Domain Name Renewal - 1 Year (recurring),QUEST-INDIA.CO.IN,809.99,809.99,0,1,1 year(s),0,809.99,0,0,1619.98,INR,Alok,Agrawal,"403, Sukhdham Apts",165 Vidhya Nagar,Indore,MP,452001,in,+91.9826922447,alok.agrawal@rediffmail.com, ,,,59858413
676618427,2014-04-06T13:44:41Z,51000-1,.IN (.CO.IN) Domain Name Renewal - 1 Year (recurring),QUESTINDIA.CO.IN,809.99,809.99,0,1,1 year(s),0,809.99,0,0,1619.98,INR,Alok,Agrawal,"403, Sukhdham Apts",165 Vidhya Nagar,Indore,MP,452001,in,+91.9826922447,alok.agrawal@rediffmail.com, ,,,59858413
626108161,2013-12-06T06:12:50Z,6635-1,Email Storage Upgrade (1000 MB Total),,1397.75,539.88,0,3,0.863 year(s),0,1397.75,0,0,1397.75,INR,Alok,Agrawal,"403, Sukhdham Apts",165 Vidhya Nagar,Indore,MP,452001,in,9826922447,alok.agrawal@rediffmail.com,Alok Agrawal,Visa,############0694,59858413
607174171,2013-10-16T06:29:06Z,42202-1,Hosting - Web - Deluxe - Windows - AP Region - 1 year (recurring),,3128.88,3128.88,0,1,1 year(s),0,3128.88,0,0,3128.88,INR,Alok,Agrawal,"403, Sukhdham Apts",165 Vidhya Nagar,Indore,MP,452001,in,9826922447,alok.agrawal@rediffmail.com, ,InStoreCredit,,59858413
587890973R,2013-10-16T06:22:47Z,42196-1,Hosting - Web - Economy - Windows - AP Region - 1 year (recurring),,-2920.68,2920.68,0,-1,1 year(s),0,-2920.68,0,0,-2920.68,INR,Alok,Agrawal,403 Sukhdham Apartment,"165 Vidhya Nagar, Behind Sapna Sangeeta",Indore,MP,452001,in,9826922447,alok.agrawal@rediffmail.com, ,InStoreCredit,,59858413
599965225,2013-09-27T12:43:16Z,10067-1,Bandwidth Renewal (recurring),,0,0,0,1,1 month(s),0,0,0,0,359.99,INR,Alok,Agrawal,Sector 30,,Gurgaon,HR,122001,IN,9953258671,alok.agrawal@rediffmail.com,Alok Agrawal,Visa,############0694,59858413
599965225,2013-09-27T12:43:16Z,17521-1,Website Builder Personal - Renewal - Monthly (recurring),,359.99,359.99,0,1,1 month(s),0,359.99,0,0,359.99,INR,Alok,Agrawal,Sector 30,,Gurgaon,HR,122001,IN,9953258671,alok.agrawal@rediffmail.com,Alok Agrawal,Visa,############0694,59858413
599965225,2013-09-27T12:43:16Z,10067-1,Bandwidth Renewal (recurring),,0,0,0,1,1 month(s),0,0,0,0,359.99,INR,Alok,Agrawal,Sector 30,,Gurgaon,HR,122001,IN,9953258671,alok.agrawal@rediffmail.com,Alok Agrawal,Visa,############0694,59858413
593291789,2013-09-17T07:20:24Z,101-1,.COM Domain Name Registration - 1 Year (recurring),QUESTEDUVENTURES.COM,139.25,589,11.69,1,1 year(s),461.44,139.25,0,0,139.25,INR,Alok,Agrawal,Sector 30,,Gurgaon,HR,122001,in,9953258671,alok.agrawal@rediffmail.com,Alok Agrawal,Visa,############0694,59858413
587890973,2013-08-28T05:32:47Z,42196-1,Hosting - Web - Economy - Windows - AP Region - 1 year (recurring),,2920.68,2920.68,0,1,1 year(s),0,2920.68,0,0,2932.68,INR,Alok,Agrawal,403 Sukhdham Apartment,"165 Vidhya Nagar, Behind Sapna Sangeeta",Indore,MP,452001,in,9826922447,alok.agrawal@rediffmail.com,Alok Agrawal,Visa,############0694,59858413
587890973,2013-08-28T05:32:47Z,101-1,.COM Domain Name Registration - 1 Year (recurring),QUEST-INDIA.COM,12,499,12,1,1 year(s),499,12,0,0,2932.68,INR,Alok,Agrawal,403 Sukhdham Apartment,"165 Vidhya Nagar, Behind Sapna Sangeeta",Indore,MP,452001,in,9826922447,alok.agrawal@rediffmail.com,Alok Agrawal,Visa,############0694,59858413
568370551,2013-07-07T13:58:59Z,101-1,.COM Domain Name Registration - 1 Year (recurring),ADVANCINGROOKS.COM,510.32,499,11.32,1,1 year(s),0,510.32,0,0,510.32,INR,Alok,Agrawal,Sector 30,,Gurgaon,HR,122001,IN,9953258671,alok.agrawal@rediffmail.com,Alok Agrawal,Visa,############0694,59858413
564254543,2013-06-27T11:30:07Z,7521-1,Website Builder Personal - Monthly (recurring),,174,58,0,3,1 month(s),0,174,0,0,174,INR,Alok,Agrawal,Sector 30,,Gurgaon,HR,122001,IN,9953258671,alok.agrawal@rediffmail.com,Alok Agrawal,Visa,############0694,59858413
556182911,2013-06-06T17:45:29Z,41000-1,.IN (.CO.IN) Domain Name Registration - 1 Year (recurring),QUEST-ONLINE.CO.IN,225,225,0,1,1 year(s),0,225,0,0,450,INR,Alok,Agrawal,Sector 30,,Gurgaon,HR,122001,IN,9953258671,alok.agrawal@rediffmail.com,Alok Agrawal,Visa,############0694,59858413
556182911,2013-06-06T17:45:29Z,41000-1,.IN (.CO.IN) Domain Name Registration - 1 Year (recurring),QUESTONLINE.CO.IN,225,225,0,1,1 year(s),0,225,0,0,450,INR,Alok,Agrawal,Sector 30,,Gurgaon,HR,122001,IN,9953258671,alok.agrawal@rediffmail.com,Alok Agrawal,Visa,############0694,59858413
538793138,2013-04-21T08:35:57Z,41000-1,.IN (.CO.IN) Domain Name Registration - 1 Year (recurring),QUEST-INDIA.CO.IN,230,230,0,1,1 year(s),0,230,0,0,460,INR,Alok,Agrawal,Sector 30,,Gurgaon,HR,122001,in,9953258671,alok.agrawal@rediffmail.com, ,Bank Payment,,59858413
538793138,2013-04-21T08:35:57Z,41000-1,.IN (.CO.IN) Domain Name Registration - 1 Year (recurring),QUESTINDIA.CO.IN,230,230,0,1,1 year(s),0,230,0,0,460,INR,Alok,Agrawal,Sector 30,,Gurgaon,HR,122001,in,9953258671,alok.agrawal@rediffmail.com, ,Bank Payment,,59858413
538792328,2013-04-21T08:13:56Z,9850-1,.IN Domain Name Registration - 1 Year (recurring),QUEST-INDIA.IN,230,230,0,1,1 year(s),0,230,0,0,230,INR,Alok,Agrawal,Sector 30,,Gurgaon,HR,122001,in,9953258671,alok.agrawal@rediffmail.com, ,Bank Payment,,59858413
